<svg xmlns="http://www.w3.org/2000/svg" viewBox="0 0 241 234">
    <title>SOCIAL, NETWORK</title>
    <g id="Layer_2" data-name="Layer 2">
        <g id="Layer_1-2" data-name="Layer 1" fill="#F6F6F6">
            <path d="M222.06,145.34A102.5,102.5,0,0,0,154,34.63c0-.38,0-.75,0-1.13a33.5,33.5,0,0,0-67,0c0,.38,0,.75,0,1.13A102.5,102.5,0,0,0,18.94,145.34a33.49,33.49,0,1,0,30.28,59.74,102.3,102.3,0,0,0,142.57,0,33.49,33.49,0,1,0,30.28-59.74ZM120.5,9A24.5,24.5,0,1,1,96,33.5,24.53,24.53,0,0,1,120.5,9ZM9,175.5A24.5,24.5,0,1,1,33.5,200,24.53,24.53,0,0,1,9,175.5ZM120.5,225a93.15,93.15,0,0,1-63.88-25.29,33.47,33.47,0,0,0-29-57.19A93.37,93.37,0,0,1,88.57,43.63a33.5,33.5,0,0,0,63.86,0,93.37,93.37,0,0,1,60.91,98.89,33.47,33.47,0,0,0-29,57.19A93.15,93.15,0,0,1,120.5,225Zm87-25A24.5,24.5,0,1,1,232,175.5,24.53,24.53,0,0,1,207.5,200Z"/>
            <path d="M161.21,133.41a4.29,4.29,0,0,0-5.77-2.68,4.42,4.42,0,0,0-2.38,5.41l2.25,7.24.08.33-17.92-10.61a16.91,16.91,0,0,0-13.2-20.58V92.76l.51.46,5.36,5.36A4.42,4.42,0,0,0,136,99a4.29,4.29,0,0,0,.31-6.36L124.29,80.57a5.37,5.37,0,0,0-7.59,0L105.31,92a4.29,4.29,0,0,0,.31,6.36,4.42,4.42,0,0,0,5.89-.41l4.68-4.68.62-.52v20a16.91,16.91,0,0,0-12.42,20.17L86.47,143.49l.08-.27,2.53-7.15a4.42,4.42,0,0,0-2.17-5.49A4.29,4.29,0,0,0,81,133l-5.68,16.08A5.37,5.37,0,0,0,78.63,156l15.18,5.37a4.29,4.29,0,0,0,5.6-3,4.42,4.42,0,0,0-2.91-5.14L90.25,151l-1-.46,18.37-10.88a16.94,16.94,0,0,0,26.57.17l18.14,10.74-1,.41-6.33,2a4.42,4.42,0,0,0-3.11,5,4.29,4.29,0,0,0,5.48,3.24l15.38-4.77a5.37,5.37,0,0,0,3.54-6.72ZM121,138.7a9.53,9.53,0,1,1,9.53-9.53A9.54,9.54,0,0,1,121,138.7Z"/>
        </g>
    </g>
</svg>